…
results <- read_excel(sourcefile, sheet = 1) # import columns
results <- drop_na(results,"Sample") # Remove rows where the Sample value is NA

# Set the right type for every column
results$Week <- as.factor(results$Week)
results$Sample <- as.factor(results$Sample)
results$Agrobacterium_colonies_5dpi_B_relative_growth <- as.factor(results$Agrobacterium_colonies_5dpi_B_relative_growth)

# See the dataframe
(results)
```

    ## # A tibble: 44 × 16
    ##    Week  Inoculation_date    Sample              Fusarium_growth_6dpi_A_steril…¹
    ##    <fct> <dttm>              <fct>                                         <dbl>
    ##  1 1     2025-05-22 00:00:00 Postitive_control_1                            28.7
    ##  2 1     2025-05-22 00:00:00 1                                              23.3
    ##  3 1     2025-05-22 00:00:00 2                                              30  
    ##  4 1     2025-05-22 00:00:00 3                                              26.7
    ##  5 1     2025-05-22 00:00:00 4                                              25  
    ##  6 1     2025-05-22 00:00:00 5                                              28  
    ##  7 2     2025-05-28 00:00:00 Postitive_control_2                            NA  
    ##  8 2     2025-05-28 00:00:00 6                                              25  
    ##  9 2     2025-05-28 00:00:00 11                                             25.5
    ## 10 2     2025-05-28 00:00:00 12                                             27  
    ## # ℹ 34 more rows
    ## # ℹ abbreviated name: ¹​Fusarium_growth_6dpi_A_sterile_mm
    ## # ℹ 12 more variables: Fusarium_growth_6dpi_B_mm <dbl>,
    ## #   Fusarium_growth_11dpi_A_sterile_mm <dbl>, Fusarium_growth_11dpi_B_mm <dbl>,
    ## #   Fusarium_growth_14dpi_B_mm <dbl>,
    ## #   `Agrobacterium_colonies_5dpi_A_sterile_#` <dbl>,
    ## #   Agrobacterium_dilution_A_sterile <dbl>, …
…
``` r
library(readxl)
library(stringr)
library(tidyr)

#Import sample labels from Microresp spreadsheet
meta <- read_excel(sourcefile, sheet = "Metadata") # import columns
meta$Sample <- as.factor(meta$Sample) # Make sure the Sample column is of type character
meta$replicate <- as.factor(meta$replicate)

meta
```

    ## # A tibble: 40 × 7
    ##    Sample plant soil  treatment replicate moisture weight_for_0.5
    ##    <fct>  <chr> <chr> <chr>     <fct>        <dbl>          <dbl>
    ##  1 1      Bare  Cl    Cp        1             6.67          0.536
    ##  2 2      Bare  Cl    Cp        2             8.79          0.548
    ##  3 3      Bare  Cl    Cp        3             7.12          0.538
    ##  4 4      Bare  Cl    Cp        4             8.81          0.548
    ##  5 5      Bare  Cl    Cp        5             7.85          0.543
    ##  6 6      Bare  Cl    Ct        1             6.49          0.535
    ##  7 7      Bare  Cl    Ct        2             5.95          0.532
    ##  8 8      Bare  Cl    Ct        3             4.11          0.521
    ##  9 9      Bare  Cl    Ct        4             7.24          0.539
    ## 10 10     Bare  Cl    Ct        5             9.09          0.550
    ## # ℹ 30 more rows
…
    left_join(select(plant_data, "plant",any_of(pick_metadata)), by = "plant") %>%
    left_join(select(soil_data, "soil",any_of(pick_metadata)), by = "soil") %>%
    left_join(select(treatment_data, "treatment",any_of(pick_metadata)), by = "treatment") %>%
    
    # Replace compressed labels for full size variables
    
    replace_values(plant_data[,1:2], "plant", "label") %>%
    replace_values(soil_data[,1:2], "soil", "label") %>%
    replace_values(treatment_data[,1:2], "treatment", "label")

meta
```

    ## # A tibble: 40 × 25
    ##    Sample plant     soil  treatment           replicate moisture weight_for_0.5
    ##    <fct>  <chr>     <chr> <fct>               <fct>        <dbl>          <dbl>
    ##  1 1      Bare soil Clay  Disease suppression 1             6.67          0.536
    ##  2 2      Bare soil Clay  Disease suppression 2             8.79          0.548
    ##  3 3      Bare soil Clay  Disease suppression 3             7.12          0.538
    ##  4 4      Bare soil Clay  Disease suppression 4             8.81          0.548
    ##  5 5      Bare soil Clay  Disease suppression 5             7.85          0.543
    ##  6 6      Bare soil Clay  Control             1             6.49          0.535
    ##  7 7      Bare soil Clay  Control             2             5.95          0.532
    ##  8 8      Bare soil Clay  Control             3             4.11          0.521
    ##  9 9      Bare soil Clay  Control             4             7.24          0.539
    ## 10 10     Bare soil Clay  Control             5             9.09          0.550
    ## # ℹ 30 more rows
    ## # ℹ 18 more variables: origin_location <chr>, soil_texture <chr>,
    ## #   CaCO3_perc <dbl>, NOM_perc <dbl>, pH <dbl>, `P-CaCl2_mgP/kg` <dbl>,
    ## #   `P-AL_mgP/kg` <dbl>, applied_product <fct>, target_function <chr>,
    ## #   active_principle_1 <chr>, active_principle_2 <chr>,
    ## #   active_principle_3 <chr>, active_principle_4 <chr>,
    ## #   active_principle_5 <chr>, active_principle_6 <chr>, …

#### 0.3.4) Paste metadata dataframe from 0.3.3) into Results dataframe imported in 0.2)

``` r
library(dplyr)

results <- left_join(results,meta,by = "Sample")
results
```

    ## # A tibble: 44 × 44
    ##    Week  Inoculation_date    Sample              Fusarium_growth_6dpi_A_steril…¹
    ##    <fct> <dttm>              <fct>                                         <dbl>
    ##  1 1     2025-05-22 00:00:00 Postitive_control_1                            28.7
    ##  2 1     2025-05-22 00:00:00 1                                              23.3
    ##  3 1     2025-05-22 00:00:00 2                                              30  
    ##  4 1     2025-05-22 00:00:00 3                                              26.7
    ##  5 1     2025-05-22 00:00:00 4                                              25  
    ##  6 1     2025-05-22 00:00:00 5                                              28  
    ##  7 2     2025-05-28 00:00:00 Postitive_control_2                            NA  
    ##  8 2     2025-05-28 00:00:00 6                                              25  
    ##  9 2     2025-05-28 00:00:00 11                                             25.5
    ## 10 2     2025-05-28 00:00:00 12                                             27  
    ## # ℹ 34 more rows
    ## # ℹ abbreviated name: ¹​Fusarium_growth_6dpi_A_sterile_mm
    ## # ℹ 40 more variables: Fusarium_growth_6dpi_B_mm <dbl>,
    ## #   Fusarium_growth_11dpi_A_sterile_mm <dbl>, Fusarium_growth_11dpi_B_mm <dbl>,
    ## #   Fusarium_growth_14dpi_B_mm <dbl>,
    ## #   `Agrobacterium_colonies_5dpi_A_sterile_#` <dbl>,
    ## #   Agrobacterium_dilution_A_sterile <dbl>, …
…
    ## Warning: Using an external vector in selections was deprecated in tidyselect 1.1.0.
    ## ℹ Please use `all_of()` or `any_of()` instead.
    ##   # Was:
    ##   data %>% select(interest_columns)
    ## 
    ##   # Now:
    ##   data %>% select(all_of(interest_columns))
    ## 
    ## See <https://tidyselect.r-lib.org/reference/faq-external-vector.html>.
    ## This warning is displayed once every 8 hours.
    ## Call `lifecycle::last_lifecycle_warnings()` to see where this warning was
    ## generated.

    ## # A tibble: 44 × 6
    ##    Sample          soil  treatment Fusarium_growth_14dp…¹ Fusarium_inhibition_…²
    ##    <fct>           <chr> <fct>                      <dbl>                  <dbl>
    ##  1 Postitive_cont… <NA>  <NA>                        NA                     NA  
    ##  2 1               Clay  Disease …                   13.5                   75.2
    ##  3 2               Clay  Disease …                   17.8                   74.6
    ##  4 3               Clay  Disease …                   17.2                   72.3
    ##  5 4               Clay  Disease …                   20.2                   65.3
    ##  6 5               Clay  Disease …                   20.2                   69.0
    ##  7 Postitive_cont… <NA>  <NA>                        NA                     NA  
    ##  8 6               Clay  Control                     12.8                   78.1
    ##  9 11              Sand… Disease …                   12.5                   79.0
    ## 10 12              Sand… Disease …                   11.8                   81.3
    ## # ℹ 34 more rows
    ## # ℹ abbreviated names: ¹​Fusarium_growth_14dpi_B_mm, ²​Fusarium_inhibition_rate
    ## # ℹ 1 more variable: Fusarium_inhibition_area <dbl>
…
